{
  "parameters": {
    "mode": "fast",
    "table_name": "table.csv",
    "incremental": true,
    "primary_keys": [
      "TIMESTAMP"
    ],
    "include_filename": true,
    "debug": true,
    "columns": []
  },
  "image_parameters": {}
}