{
  "parameters": {
    "mode": "strict",
    "columns": ["DATE", "TIMESTAMP", "BOOLEAN", "FLOAT", "INTEGER", "NUMERIC"],
    "table_name": "table.csv",
    "incremental": true,
    "primary_keys": [
      "TIMESTAMP"
    ],
    "include_filename": true,
    "debug": true
  },
  "image_parameters": {}
}